pa2/test_run_dir/HammingCodeSpec1160832731/HammingCode.vcd
$date
2017-10-28T14:56+0000
$end
$version
0.2
$end
$comment

$end
$timescale 1ps  $end
$scope module HammingCode $end
 $var wire 7 ! io_out $end
 $var wire 1 " p2 $end
 $var wire 1 # io_enable $end
 $var wire 1 $ p1 $end
 $var wire 1 % clock $end
 $var wire 1 & valid_reg $end
 $var wire 1 ' io_valid $end
 $var wire 4 ( io_in $end
 $var wire 1 ) p3 $end
 $var wire 1 * reset $end
 $var wire 7 + hamming $end
$upscope $end
$enddefinitions $end
$dumpvars
0%
0"
b0111111 !
1'
0#
0*
1)
b0111111 +
0$
1&
b1001 (
$end
#0
1*
#1
0'
1%
0&
#2
0%
#3
1%
#4
0%
#5
1%
#6
0%
#7
1%
#8
0%
#9
1%
#10
b0000 (
0%
0*
1#
#11
1%
0)
b0000000 +
1&
b0000000 !
1'
#12
0%
0#
#13
0'
1%
0&
#14
0%
b0001 (
1#
#15
b0000111 +
b0000111 !
1%
1$
1&
1"
1'
#16
b0000 (
0%
0#
#17
0'
1%
0&
#18
0%
b0010 (
1#
#19
0"
1%
b0011001 !
b0011001 +
1)
1&
1'
#20
b0000 (
0%
0#
#21
0'
1%
0&
#22
0%
b0011 (
1#
#23
1%
b0011110 +
1&
b0011110 !
1"
0$
1'
#24
b0000 (
0%
0#
#25
0'
1%
0&
#26
0%
1#
b0100 (
#27
b0101010 +
1%
b0101010 !
1&
1'
#28
b0000 (
0%
0#
#29
0'
1%
0&
#30
0%
1#
b0101 (
#31
0"
1%
1$
b0101101 +
b0101101 !
1&
1'
#32
b0000 (
0%
0#
#33
0'
1%
0&
#34
b0110 (
0%
1#
#35
b0110011 +
1%
b0110011 !
0)
1&
1"
1'
#36
b0000 (
0%
0#
#37
0'
1%
0&
#38
0%
1#
b0111 (
#39
0"
b0110100 !
1%
b0110100 +
1&
0$
1'
#40
b0000 (
0%
0#
#41
0'
1%
0&
#42
0%
b1000 (
1#
#43
b1001011 !
1%
1$
b1001011 +
1)
1&
1"
1'
#44
b0000 (
0%
0#
#45
0'
1%
0&
#46
b1001 (
0%
1#
#47
0"
b1001100 +
1%
1&
0$
b1001100 !
1'
#48
b0000 (
0%
0#
#49
0'
1%
0&
#50
0%
b1010 (
1#
#51
1%
0)
b1010010 !
1&
1"
1'
b1010010 +
#52
b0000 (
0%
0#
#53
0'
1%
0&
#54
b1011 (
0%
1#
#55
0"
b1010101 +
1%
1$
1&
b1010101 !
1'
#56
b0000 (
0%
0#
#57
0'
1%
0&
#58
0%
b1100 (
1#
#59
b1100001 !
1%
1&
b1100001 +
1'
#60
b0000 (
0%
0#
#61
0'
1%
0&
#62
0%
1#
b1101 (
#63
b1100110 !
1%
1&
1"
0$
1'
b1100110 +
#64
b0000 (
0%
0#
#65
0'
1%
0&
#66
0%
b1110 (
1#
#67
0"
b1111000 !
1%
b1111000 +
1)
1&
1'
#68
b0000 (
0%
0#
#69
0'
1%
0&
#70
b1111 (
0%
1#
#71
b1111111 !
1%
1$
b1111111 +
1&
1"
1'
#72
b0000 (
0%
0#
#73
0'
1%
0&
